[{
  "id": 1,
  "fecha": "9/8/2019",
  "importe": 87,
  "latitud": 42.1261418,
  "longitud": 59.6665153,
  "ciudad": "Boldumsaz"
}, {
  "id": 2,
  "fecha": "10/24/2018",
  "importe": 39,
  "latitud": -7.305958,
  "longitud": 112.8135304,
  "ciudad": "Wonorejo"
}, {
  "id": 3,
  "fecha": "9/15/2019",
  "importe": 60,
  "latitud": 32.883468,
  "longitud": 115.806942,
  "ciudad": "Yingzhou"
}, {
  "id": 4,
  "fecha": "4/22/2019",
  "importe": 82,
  "latitud": 34.4822519,
  "longitud": 66.2724183,
  "ciudad": "La‘l"
}, {
  "id": 5,
  "fecha": "2/28/2019",
  "importe": 67,
  "latitud": -8.0088871,
  "longitud": 111.9030636,
  "ciudad": "Sembon"
}, {
  "id": 6,
  "fecha": "9/4/2019",
  "importe": 99,
  "latitud": 26.170171,
  "longitud": 118.190467,
  "ciudad": "Youxi"
}, {
  "id": 7,
  "fecha": "10/25/2018",
  "importe": 24,
  "latitud": 25.671402,
  "longitud": 104.260115,
  "ciudad": "Yuwang"
}, {
  "id": 8,
  "fecha": "4/5/2019",
  "importe": 38,
  "latitud": 55.7452926,
  "longitud": 24.3713362,
  "ciudad": "Panevėžys"
}, {
  "id": 9,
  "fecha": "8/10/2019",
  "importe": 61,
  "latitud": 45.3532302,
  "longitud": 15.8650719,
  "ciudad": "Gvozd"
}, {
  "id": 10,
  "fecha": "1/18/2019",
  "importe": 41,
  "latitud": 49.5053261,
  "longitud": 6.0202939,
  "ciudad": "Schifflange"
}, {
  "id": 11,
  "fecha": "7/31/2019",
  "importe": 74,
  "latitud": 35.26364,
  "longitud": 116.449839,
  "ciudad": "Jintun"
}, {
  "id": 12,
  "fecha": "6/22/2019",
  "importe": 90,
  "latitud": 40.1208803,
  "longitud": -7.1636797,
  "ciudad": "Aldeia do Bispo"
}, {
  "id": 13,
  "fecha": "3/14/2019",
  "importe": 15,
  "latitud": -4.8919744,
  "longitud": 105.2779983,
  "ciudad": "Nambak Tengah"
}, {
  "id": 14,
  "fecha": "8/4/2019",
  "importe": 35,
  "latitud": 50.3100516,
  "longitud": 106.4966629,
  "ciudad": "Altanbulag"
}, {
  "id": 15,
  "fecha": "1/11/2019",
  "importe": 27,
  "latitud": 36.87492,
  "longitud": 108.413764,
  "ciudad": "Canggou"
}, {
  "id": 16,
  "fecha": "8/29/2019",
  "importe": 11,
  "latitud": -6.716667,
  "longitud": 111.216667,
  "ciudad": "Batangan"
}, {
  "id": 17,
  "fecha": "7/31/2019",
  "importe": 39,
  "latitud": 43.4598651,
  "longitud": -3.8057968,
  "ciudad": "Santander"
}, {
  "id": 18,
  "fecha": "12/16/2018",
  "importe": 31,
  "latitud": -7.1309871,
  "longitud": 111.591546,
  "ciudad": "Karangboyo"
}, {
  "id": 19,
  "fecha": "11/20/2018",
  "importe": 33,
  "latitud": 45.1216628,
  "longitud": 19.0173647,
  "ciudad": "Nijemci"
}, {
  "id": 20,
  "fecha": "4/27/2019",
  "importe": 71,
  "latitud": -23.6515085,
  "longitud": -46.8521864,
  "ciudad": "Embu"
}]
